module gitlab.com/ThomasJunk/backend

go 1.16

require (
	github.com/766b/chi-logger v0.0.0-20180309043024-d2679d398ce4 // indirect
	github.com/alexedwards/scs/boltstore v0.0.0-20210606090158-85ec2fab6bdf // indirect
	github.com/alexedwards/scs/v2 v2.4.0
	github.com/go-chi/chi v1.5.4 // indirect
	github.com/go-chi/chi/v5 v5.0.3
	github.com/joho/godotenv v1.3.0
	github.com/sirupsen/logrus v1.8.1 // indirect
	github.com/unrolled/secure v1.0.9
	go.etcd.io/bbolt v1.3.6 // indirect
	go.uber.org/atomic v1.8.0 // indirect
	go.uber.org/multierr v1.7.0 // indirect
	go.uber.org/zap v1.18.1 // indirect
)
